…
tidy_df
```

    ## # A tibble: 160 × 4
    ##    id    arm    week value
    ##    <chr> <chr> <dbl> <dbl>
    ##  1 01    con       1  0.2 
    ##  2 01    con       2 -1.31
    ##  3 01    con       3  0.66
    ##  4 01    con       4  1.96
    ##  5 01    con       5  0.23
    ##  6 01    con       6  1.09
    ##  7 01    con       7  0.05
    ##  8 01    con       8  1.94
    ##  9 02    con       1  1.13
    ## 10 02    con       2 -0.88
    ## # ℹ 150 more rows
…
``` r
output = vector("list", 5000)

for (i in 1:5000) {
  
  output[[i]] = t_test_simulations(n = 30, mu = 0, sd = 5)
  
}

sim_results_mu_0 = bind_rows(output)

sim_results_mu_0
```

    ## # A tibble: 5,000 × 3
    ##       mu mu_hat p_value
    ##    <dbl>  <dbl>   <dbl>
    ##  1     0  0.664  0.368 
    ##  2     0  0.551  0.534 
    ##  3     0  0.567  0.487 
    ##  4     0 -1.65   0.0599
    ##  5     0  1.19   0.229 
    ##  6     0  0.334  0.738 
    ##  7     0 -1.19   0.209 
    ##  8     0  0.122  0.887 
    ##  9     0  0.684  0.472 
    ## 10     0  1.09   0.218 
    ## # ℹ 4,990 more rows
…
